{
    "entries": [
        {
            "type": "1", 
            "name": "Hello", 
            "value": "World"
        }, 
        {
            "type": "1", 
            "name": "Hello", 
            "value": "Smirl"
        }, 
        {
            "type": "Three", 
            "name": "One", 
            "value": "2"
        }
    ]
}
}